<?xml version="1.0" encoding="utf-8"?>
<!-- Generator: Adobe Illustrator 16.0.0, SVG Export Plug-In . SVG Version: 6.00 Build 0)  -->
<!DOCTYPE svg PUBLIC "-//W3C//DTD SVG 1.1//EN" "http://www.w3.org/Graphics/SVG/1.1/DTD/svg11.dtd">
<svg version="1.1" id="Layer_1" xmlns="http://www.w3.org/2000/svg" xmlns:xlink="http://www.w3.org/1999/xlink" x="0px" y="0px"
	 width="480px" height="196px" viewBox="0 0 480 196" enable-background="new 0 0 480 196" xml:space="preserve">
<path fill-rule="evenodd" clip-rule="evenodd" fill="#F05253" d="M84,72l323-50c5.523,0,10,4.477,10,10v113c0,5.522-4.477,10-10,10
	H84c-5.523,0-10-4.478-10-10V82C74,76.477,78.477,72,84,72z"/>
</svg>
