<?xml version="1.0" encoding="utf-8"?>
<!-- Generator: Adobe Illustrator 16.0.0, SVG Export Plug-In . SVG Version: 6.00 Build 0)  -->
<!DOCTYPE svg PUBLIC "-//W3C//DTD SVG 1.1//EN" "http://www.w3.org/Graphics/SVG/1.1/DTD/svg11.dtd">
<svg version="1.1" id="Capa_1" xmlns="http://www.w3.org/2000/svg" xmlns:xlink="http://www.w3.org/1999/xlink" x="0px" y="0px"
	 width="595.281px" height="841.891px" viewBox="0 0 595.281 841.891" enable-background="new 0 0 595.281 841.891"
	 xml:space="preserve">
<g>
	<g>
		<path fill="#FFFFFF" d="M481.972,536.193c-2.361,0-4.723-0.864-6.566-2.61L364.958,429.968c-3.859-3.609-4.051-9.694-0.424-13.553
			c3.629-3.896,9.676-4.069,13.572-0.422l110.449,103.615c3.857,3.609,4.049,9.693,0.422,13.552
			C487.078,535.176,484.542,536.193,481.972,536.193z"/>
		<path fill="#FFFFFF" d="M113.29,536.193c-2.553,0-5.106-1.018-7.006-3.033c-3.628-3.858-3.436-9.942,0.422-13.552l110.487-103.615
			c3.877-3.608,9.962-3.455,13.571,0.422c3.628,3.858,3.436,9.943-0.422,13.553L119.854,533.583
			C118.012,535.329,115.651,536.193,113.29,536.193z"/>
	</g>
	<path fill="#FFFFFF" d="M547.292,632.534H47.988C21.537,632.534,0,611.015,0,584.546v-327.22c0-26.471,21.537-47.988,47.988-47.988
		h499.305c26.451,0,47.988,21.518,47.988,47.988v327.22C595.281,611.015,573.744,632.534,547.292,632.534z M47.988,228.533
		c-15.875,0-28.792,12.918-28.792,28.793v327.22c0,15.874,12.918,28.793,28.792,28.793h499.305
		c15.875,0,28.793-12.919,28.793-28.793v-327.22c0-15.875-12.918-28.793-28.793-28.793H47.988z"/>
	<path fill="#FFFFFF" d="M297.64,469.164c-12.765,0-25.53-4.242-35.242-12.707L15.932,241.451c-3.993-3.474-4.415-9.54-0.941-13.552
		c3.513-3.992,9.56-4.357,13.552-0.921l246.466,214.985c12.266,10.692,32.996,10.692,45.242,0l246.16-214.64
		c3.973-3.475,10.02-3.091,13.551,0.921c3.475,4.012,3.072,10.059-0.922,13.552L332.882,456.437
		C323.15,464.922,310.406,469.164,297.64,469.164z"/>
</g>
</svg>
