<?xml version="1.0" encoding="utf-8"?>
<!-- Generator: Adobe Illustrator 16.0.0, SVG Export Plug-In . SVG Version: 6.00 Build 0)  -->
<!DOCTYPE svg PUBLIC "-//W3C//DTD SVG 1.1//EN" "http://www.w3.org/Graphics/SVG/1.1/DTD/svg11.dtd">
<svg version="1.1" id="Capa_1" xmlns="http://www.w3.org/2000/svg" xmlns:xlink="http://www.w3.org/1999/xlink" x="0px" y="0px"
	 width="595.281px" height="841.891px" viewBox="0 0 595.281 841.891" enable-background="new 0 0 595.281 841.891"
	 xml:space="preserve">
<g>
	<path fill="#FFFFFF" d="M590.185,128.482c-4.949-4.95-12.564-6.346-18.91-3.554L10.31,370.762
		c-5.965,2.666-9.899,8.377-10.28,14.85s3.046,12.564,8.63,15.737l195.576,110.924l116.127,197.607
		c3.047,5.203,8.758,8.503,14.723,8.503c0.381,0,0.635,0,1.016,0c6.473-0.381,12.057-4.315,14.721-10.28l243.043-560.711
		C596.658,140.92,595.261,133.431,590.185,128.482z M500.962,193.082L213.881,478.26L55.364,388.404L500.962,193.082z
		 M332.8,663.429l-94.551-161.056L526.98,215.546L332.8,663.429z"/>
</g>
</svg>
